waveform.vcd
$version Generated by VerilatedVcd $end
$date Sun Nov 27 23:32:35 2022 $end
$timescale 1ps $end

 $scope module TOP $end
  $var wire  2 I! bp [1:0] $end
  $var wire 32 H! bpv [31:0] $end
  $var wire  1 1! clk $end
  $var wire 268 ?! ctrl [267:0] $end
  $var wire  1 3! holdn $end
  $var wire  5 <! op1 [4:0] $end
  $var wire  3 =! op2 [2:0] $end
  $var wire  8 4! ra0 [7:0] $end
  $var wire  8 5! ra1 [7:0] $end
  $var wire  8 6! ra2 [7:0] $end
  $var wire  8 7! ra3 [7:0] $end
  $var wire  8 8! rb0 [7:0] $end
  $var wire  8 9! rb1 [7:0] $end
  $var wire  8 :! rb2 [7:0] $end
  $var wire  8 ;! rb3 [7:0] $end
  $var wire  1 >! rc_we $end
  $var wire 16 J! result0 [15:0] $end
  $var wire 16 K! result1 [15:0] $end
  $var wire  1 2! rstn $end
  $var wire 32 L! s1bp [31:0] $end
  $var wire 32 M! s2bp [31:0] $end
  $scope module sparrow $end
   $var wire 32 l! LOGSZ [31:0] $end
   $var wire  5 o! S1_ADD [4:0] $end
   $var wire  5 t! S1_AND [4:0] $end
   $var wire  5 r! S1_MAX [4:0] $end
   $var wire  5 s! S1_MIN [4:0] $end
   $var wire  5 }! S1_MOVB [4:0] $end
   $var wire  5 q! S1_MUL [4:0] $end
   $var wire  5 w! S1_NAND [4:0] $end
   $var wire  5 n! S1_NOP [4:0] $end
   $var wire  5 x! S1_NOR [4:0] $end
   $var wire  5 u! S1_OR [4:0] $end
   $var wire  5 z! S1_SADD [4:0] $end
   $var wire  5 ~! S1_SHFT [4:0] $end
   $var wire  5 |! S1_SMUL [4:0] $end
   $var wire  5 $" S1_SSHFT [4:0] $end
   $var wire  5 {! S1_SSUB [4:0] $end
   $var wire  5 p! S1_SUB [4:0] $end
   $var wire  5 "" S1_UMAX [4:0] $end
   $var wire  5 #" S1_UMIN [4:0] $end
   $var wire  5 !" S1_UMUL [4:0] $end
   $var wire  5 %" S1_USADD [4:0] $end
   $var wire  5 '" S1_USMUL [4:0] $end
   $var wire  5 &" S1_USSUB [4:0] $end
   $var wire  5 y! S1_XNOR [4:0] $end
   $var wire  5 v! S1_XOR [4:0] $end
   $var wire  3 *" S2_MAX [2:0] $end
   $var wire  3 +" S2_MIN [2:0] $end
   $var wire  3 (" S2_NOP [2:0] $end
   $var wire  3 )" S2_SUM [2:0] $end
   $var wire  3 ." S2_UMAX [2:0] $end
   $var wire  3 /" S2_UMIN [2:0] $end
   $var wire  3 -" S2_USUM [2:0] $end
   $var wire  3 ," S2_XOR [2:0] $end
   $var wire 32 k! VLEN [31:0] $end
   $var wire 32 m! VSIZE [31:0] $end
   $var wire 32 j! XLEN [31:0] $end
  $upscope $end
  $scope module wrapper $end
   $var wire  2 I! bp [1:0] $end
   $var wire 32 H! bpv [31:0] $end
   $var wire  1 1! clk $end
   $var wire 268 ?! ctrl [267:0] $end
   $var wire  1 3! holdn $end
   $var wire  5 <! op1 [4:0] $end
   $var wire  3 =! op2 [2:0] $end
   $var wire  8 4! ra0 [7:0] $end
   $var wire  8 5! ra1 [7:0] $end
   $var wire  8 6! ra2 [7:0] $end
   $var wire  8 7! ra3 [7:0] $end
   $var wire  8 8! rb0 [7:0] $end
   $var wire  8 9! rb1 [7:0] $end
   $var wire  8 :! rb2 [7:0] $end
   $var wire  8 ;! rb3 [7:0] $end
   $var wire  1 >! rc_we $end
   $var wire 16 J! result0 [15:0] $end
   $var wire 16 K! result1 [15:0] $end
   $var wire  1 2! rstn $end
   $var wire 32 L! s1bp [31:0] $end
   $var wire 32 M! s2bp [31:0] $end
   $var wire 375 # sdi [374:0] $end
   $var wire 96 / sdo [95:0] $end
   $scope module jack $end
    $var wire 206 X! RRES [205:0] $end
    $var wire 64 R add_res [63:0] $end
    $var wire  1 1! clk $end
    $var wire  1 3! holdn $end
    $var wire 64 O! inter_reg_res [63:0] $end
    $var wire 64 \ logic_res [63:0] $end
    $var wire 18 9 lpmuli(0) [17:0] $end
    $var wire 18 : lpmuli(1) [17:0] $end
    $var wire 18 ; lpmuli(2) [17:0] $end
    $var wire 18 < lpmuli(3) [17:0] $end
    $var wire 16 = lpmulo(0) [15:0] $end
    $var wire 16 > lpmulo(1) [15:0] $end
    $var wire 16 ? lpmulo(2) [15:0] $end
    $var wire 16 @ lpmulo(3) [15:0] $end
    $var wire 64 X max_res [63:0] $end
    $var wire 64 Z min_res [63:0] $end
    $var wire 64 V mul_res [63:0] $end
    $var wire 32 H op1 [31:0] $end
    $var wire 32 I op2 [31:0] $end
    $var wire 206 *! r [205:0] $end
    $var wire 206 2 rin [205:0] $end
    $var wire 32 J rs1 [31:0] $end
    $var wire 32 K rs2 [31:0] $end
    $var wire  1 2! rstn $end
    $var wire  4 ` s1_alusel [3:0] $end
    $var wire 64 P s1_r2 [63:0] $end
    $var wire 64 N s1_ra [63:0] $end
    $var wire 73 Q! s1_reg_res [72:0] $end
    $var wire 64 L s1_res [63:0] $end
    $var wire 69 T! s2_reg_res [68:0] $end
    $var wire 32 f s2_res [31:0] $end
    $var wire 32 b s2max_res [31:0] $end
    $var wire 32 c s2min_res [31:0] $end
    $var wire 32 a s2sum_res [31:0] $end
    $var wire 32 d s2xor_res [31:0] $end
    $var wire 32 W! s3_reg_res [31:0] $end
    $var wire 375 # sdi [374:0] $end
    $var wire 96 / sdo [95:0] $end
    $var wire 64 ^ shift_res [63:0] $end
    $var wire  1 e sign $end
    $var wire 64 T sub_res [63:0] $end
    $var wire 206 A v [205:0] $end
    $var wire 32 N! vector_reg_res [31:0] $end
    $scope module mul0 $end
     $var wire  8 _! SMAX [7:0] $end
     $var wire  8 `! SMIN [7:0] $end
     $var wire  8 a! UMAX [7:0] $end
     $var wire  8 i a [7:0] $end
     $var wire  8 j b [7:0] $end
     $var wire  8 b! inverted_a [7:0] $end
     $var wire  8 c! inverted_b [7:0] $end
     $var wire  1 m is_there_sat $end
     $var wire 18 9 muli [17:0] $end
     $var wire 16 = mulo [15:0] $end
     $var wire  3 n mux [2:0] $end
     $var wire 16 h nz [15:0] $end
     $var wire  1 k signA $end
     $var wire  1 l signB $end
     $var wire 16 g z [15:0] $end
    $upscope $end
    $scope module mul1 $end
     $var wire  8 _! SMAX [7:0] $end
     $var wire  8 `! SMIN [7:0] $end
     $var wire  8 a! UMAX [7:0] $end
     $var wire  8 q a [7:0] $end
     $var wire  8 r b [7:0] $end
     $var wire  8 d! inverted_a [7:0] $end
     $var wire  8 e! inverted_b [7:0] $end
     $var wire  1 u is_there_sat $end
     $var wire 18 : muli [17:0] $end
     $var wire 16 > mulo [15:0] $end
     $var wire  3 v mux [2:0] $end
     $var wire 16 p nz [15:0] $end
     $var wire  1 s signA $end
     $var wire  1 t signB $end
     $var wire 16 o z [15:0] $end
    $upscope $end
    $scope module mul2 $end
     $var wire  8 _! SMAX [7:0] $end
     $var wire  8 `! SMIN [7:0] $end
     $var wire  8 a! UMAX [7:0] $end
     $var wire  8 y a [7:0] $end
     $var wire  8 z b [7:0] $end
     $var wire  8 f! inverted_a [7:0] $end
     $var wire  8 g! inverted_b [7:0] $end
     $var wire  1 } is_there_sat $end
     $var wire 18 ; muli [17:0] $end
     $var wire 16 ? mulo [15:0] $end
     $var wire  3 ~ mux [2:0] $end
     $var wire 16 x nz [15:0] $end
     $var wire  1 { signA $end
     $var wire  1 | signB $end
     $var wire 16 w z [15:0] $end
    $upscope $end
    $scope module mul3 $end
     $var wire  8 _! SMAX [7:0] $end
     $var wire  8 `! SMIN [7:0] $end
     $var wire  8 a! UMAX [7:0] $end
     $var wire  8 #! a [7:0] $end
     $var wire  8 $! b [7:0] $end
     $var wire  8 h! inverted_a [7:0] $end
     $var wire  8 i! inverted_b [7:0] $end
     $var wire  1 '! is_there_sat $end
     $var wire 18 < muli [17:0] $end
     $var wire 16 @ mulo [15:0] $end
     $var wire  3 (! mux [2:0] $end
     $var wire 16 "! nz [15:0] $end
     $var wire  1 %! signA $end
     $var wire  1 &! signB $end
     $var wire 16 !! z [15:0] $end
    $upscope $end
    $scope module unnamedblk11 $end
     $var wire 32 )! i [31:0] $end
    $upscope $end
   $upscope $end
  $upscope $end
 $upscope $end
$enddefinitions $end


#0
b100101100111110001011100000100111001111011111100011101100101100000101100100000101110111010001111111010110001010101110011110011010000001110010111100110100100000011000110001110010010100011111110001100100111100001111011000111101001000001110100100101111110110000011001110100110100101100010001101010101000101000001100111000000001000011100100000001010101111100110110011111000101110 #
b010101111011100111100101000100100011111011100110110011111110100000000000000000001101101000001111 /
b10010110011111000101110000010011100111101111110001110110010110000010110011111111100111110111111111110011011111111110011111111111111101000110000000000000000000110110100000111111111111111111111111111111111111 2
b111010001000101110 9
b101000001100111110 :
b101110101110011010 ;
b001111101010101110 <
b0000101011111000 =
b0001001001100000 >
b0000011100011100 ?
b1110101101101010 @
b10010110011111000101110000010011100111101111110001110110010110000010110011111111100111110111111111110011011111111110011111111111111101000110000000000000000000110110100000111111111111111111111111111111111111 A
b00111110101110101010000011101000 H
b10101011111001101100111110001011 I
b00111110101110101010000011101000 J
b10101011111001101100111110001011 K
b1111111100111110111111111110011011111111110011111111111111101000 L
b1111111100111110111111111011101011111111101000001111111111101000 N
b1111111110101011111111111110011011111111110011111111111110001011 P
b1111111111101001111111111010000011111111011011111111111101110011 R
b0000000010010011111111111101010011111111110100010000000001011101 T
b1110101101101010000001110001110000010010011000000000101011111000 V
b1111111100111110111111111110011011111111110011111111111111101000 X
b1111111110101011111111111011101011111111101000001111111110001011 Z
b0000000000000000000000000000000000000000000000000000000000000000 \
b0000000000000000111111111111100100000000000000000000000000000000 ^
b0101 `
b00000000000000000000000011111111 a
b00000000000000001101101000001111 b
b00000000000000000000010001001000 c
b00000000000000000000000001100010 d
1e
b00000000000000001101101000001111 f
b0000101011111000 g
b1111010100001000 h
b00011000 i
b01110101 j
1k
1l
0m
b000 n
b0001001001100000 o
b1110110110100000 p
b01100000 q
b00110001 r
1s
1t
0u
b000 v
b0000011100011100 w
b1111100011100100 x
b01000110 y
b00011010 z
1{
1|
0}
b000 ~
b0001010010010110 !!
b1110101101101010 "!
b00111110 #!
b01010101 $!
0%!
1&!
0'!
b001 (!
b00000000000000000000000000000100 )!
b00111110101110101010000011101000101010110100000111101100101000000010111000010010000110000101111000001010100000100010010001101101000001111110110101011110111001111001010001001011100001011010101100101000011011 *!
11!
12!
13!
b00010011 4!
b01011100 5!
b01111100 6!
b10010110 7!
b01011000 8!
b01110110 9!
b11111100 :!
b10011110 ;!
b00101 <!
b100 =!
1>!
b1101001101011110010010010101101011000010101101111000110010011010101101011100000011000110110110010100100110001010101111011001101011100001001001100101100000001101010011000110000110011000010011110110110110001100011001010111111011101110100101110101100001000100001001011011 ?!
b10101011111001101100111110001011 H!
b10 I!
b1110010100010010 J!
b0101011110111001 K!
b00111110111001101100111111101000 L!
b00000000000000001101101000001111 M!
b00000000000000000000000000000000 N!
b0000000000000000000000000000000000000000000000000000000000000000 O!
b0000000000000000000000000000000000000000000000000000000000000000000000000 Q!
b000000000000000000000000000000000000000000000000000000000000000000000 T!
b00000000000000000000000000000000 W!
b00000000000000000000000000000000000000000000000000000000000000000000000000000000000000000000000000000000000000000000000000000000000000000000000000000000000000000000000000000000000000000000000000000000000000 X!
b01111111 _!
b10000000 `!
b11111111 a!
b11111100 b!
b01011010 c!
b10111101 d!
b10111101 e!
b01110101 f!
b10111110 g!
b11100111 h!
b10011000 i!
b00000000000000000000000000100000 j!
b00000000000000000000000000001000 k!
b00000000000000000000000000000010 l!
b00000000000000000000000000000100 m!
b00000 n!
b00001 o!
b00010 p!
b00011 q!
b00101 r!
b00110 s!
b00111 t!
b01000 u!
b01001 v!
b01010 w!
b01011 x!
b01100 y!
b01101 z!
b01110 {!
b01111 |!
b10000 }!
b10001 ~!
b10011 !"
b10101 ""
b10110 #"
b11001 $"
b11101 %"
b11110 &"
b11111 '"
b000 ("
b001 )"
b010 *"
b011 +"
b100 ,"
b101 -"
b110 ."
b111 /"
#1
01!
#2
b000000000000000011011010000011111010101101111100010111000001001100000000000000001111111111101000 /
b10010110011111000101110000010011100111101111110001110110010110000010110011111111110101011111111110111110011111111010111001111111100010011100010000000000000000111111111110100011111111111111111111111111111111 2
b000100111000101110 9
b010111001100111110 :
b011111001110011010 ;
b100101101010101110 <
b1111011101010001 =
b1110111001100100 >
b1111001101101000 ?
b0010001100110010 @
b10010110011111000101110000010011100111101111110001110110010110000010110011111111110101011111111110111110011111111010111001111111100010011100010000000000000000111111111110100011111111111111111111111111111111 A
b10010110011111000101110000010011 H
b10010110011111000101110000010011 J
b1111111110101011111111110111110011111111010111001111111100010011 L
b1111111110010110111111110111110011111111010111001111111100010011 N
b1111111101000001000000000110001000000000001010111111111110011110 R
b1111111111101011000000001001011000000000100011010000000010001000 T
b0010001100110010111100110110100011101110011001001111011101010001 V
b1111111110101011111111110111110011111111010111001111111100010011 X
b1111111110010110111111111110011011111111110011111111111110001011 Z
b00000000000000101111111110011101 a
b00000000000000001111111111101000 b
b00000000000000001111111100111110 c
b00000000000000000000000011111111 d
b00000000000000001111111111101000 f
b0000100010101111 g
b1111011101010001 h
b00010011 i
0k
b001 n
b0001000110011100 o
b1110111001100100 p
b01011100 q
0s
b001 v
b0000110010011000 w
b1111001101101000 x
b01111100 y
0{
b001 ~
b0010001100110010 !!
b1101110011001110 "!
b01101010 #!
1%!
b000 (!
b10010110011111000101110000010011100111101111110001110110010110000010110011111111100111110111111111110011011111111110011111111111111101000110000000000000000000110110100000111111111111111111111111111111111111 *!
11!
b1101101000001111 J!
b0000000000000000 K!
b10101011011111000101110000010011 L!
b00000000000000001111111111101000 M!
#3
01!
#4
b000000000000000000000000000000000000000000000000000000000000000000000000000000000000000000000000 /
b10010110011111000101110000010011100111101111110001110110010110000010110010000000000000000000000000000000000000000000000000000000000000000000000000000000000000000000000000000000000000000000000000000000000000 2
b000000001000101110 9
b000000001100111110 :
b000000001110011010 ;
b000000001010101110 <
b0000000000000000 =
b0000000000000000 >
b0000000000000000 ?
b0000000000000000 @
b10010110011111000101110000010011100111101111110001110110010110000010110010000000000000000000000000000000000000000000000000000000000000000000000000000000000000000000000000000000000000000000000000000000000000 A
b00000000000000000000000000000000 H
b00000000000000000000000000000000 J
b0000000000000000000000000000000000000000000000000000000000000000 L
b0000000000000000000000000000000000000000000000000000000000000000 N
b0000000010101011000000001110011000000000110011110000000010001011 P
b1111111110101011111111111110011011111111110011111111111110001011 R
b0000000001010101000000000001101000000000001100010000000001110101 T
b0000000000000000000000000000000000000000000000000000000000000000 V
b0000000010101011000000001110011000000000110011110000000010001011 X
b0000000000000000000000000000000000000000000000000000000000000000 Z
b0000000010101011000000001110011000000000110011110000000010001011 \
b0000000000000000000000000000000000000000000000000000000000000000 ^
b0000 `
b00000000000000000000000000000000 a
b00000000000000000000000000000000 b
b00000000000000000000000000000000 c
b00000000000000000000000000000000 d
0e
b00000000000000000000000000000000 f
b0000000000000000 g
b0000000000000000 h
b00000000 i
b0000000000000000 o
b0000000000000000 p
b00000000 q
b0000000000000000 w
b0000000000000000 x
b00000000 y
b0000000000000000 !!
b0000000000000000 "!
b00000000 #!
0%!
b001 (!
b00000000000000000000000000000000000000000000000000000000000000000000000000000000000000000000000000000000000000000000000000000000000000000000000000000000000000000000000000000000000000000000000000000000000000 *!
11!
02!
b0000000000000000 J!
b00000000000000000000000000000000 L!
b00000000000000000000000000000000 M!
#5
01!
#6
11!
#7
01!
#8
b000000000000000000000000000000001010101101111100010111000001001100000000000000000000000000000000 /
b10010110011111000101110000010011100111101111110001110110010110000010110011111111110101011111111110111110011111111010111001111111100010011100010000000000000000000000000000000011111111111111111111111111111111 2
b000100111000101110 9
b010111001100111110 :
b011111001110011010 ;
b100101101010101110 <
b1111011101010001 =
b1110111001100100 >
b1111001101101000 ?
b0010001100110010 @
b10010110011111000101110000010011100111101111110001110110010110000010110011111111110101011111111110111110011111111010111001111111100010011100010000000000000000000000000000000011111111111111111111111111111111 A
b10010110011111000101110000010011 H
b10010110011111000101110000010011 J
b1111111110101011111111110111110011111111010111001111111100010011 L
b1111111110010110111111110111110011111111010111001111111100010011 N
b1111111110101011111111111110011011111111110011111111111110001011 P
b1111111101000001000000000110001000000000001010111111111110011110 R
b1111111111101011000000001001011000000000100011010000000010001000 T
b0010001100110010111100110110100011101110011001001111011101010001 V
b1111111110101011111111110111110011111111010111001111111100010011 X
b1111111110010110111111111110011011111111110011111111111110001011 Z
b0000000000000000000000000000000000000000000000000000000000000000 \
b0000000000000000111111111111100100000000000000000000000000000000 ^
b0101 `
1e
b0000100010101111 g
b1111011101010001 h
b00010011 i
b0001000110011100 o
b1110111001100100 p
b01011100 q
b0000110010011000 w
b1111001101101000 x
b01111100 y
b0010001100110010 !!
b1101110011001110 "!
b01101010 #!
1%!
b000 (!
b10010110011111000101110000010011100111101111110001110110010110000010110010000000000000000000000000000000000000000000000000000000000000000000000000000000000000000000000000000000000000000000000000000000000000 *!
11!
12!
b10101011011111000101110000010011 L!
#9
01!
#10
b000000000000000000000000000000001010101101111100010111000001001100000000000000000000000010011000 /
b10010110011111000101110000010011100111101111110001110110010110000010110011111111110101011111111110111110011111111010111001111111100010011100010000000000000000000000001001100011111111111111111111111111111111 2
b10010110011111000101110000010011100111101111110001110110010110000010110011111111110101011111111110111110011111111010111001111111100010011100010000000000000000000000001001100011111111111111111111111111111111 A
b00000000000000101111110111101011 a
b00000000000000001111111110101011 b
b00000000000000001111111100010011 c
b00000000000000000000000010011000 d
b00000000000000000000000010011000 f
b10010110011111000101110000010011100111101111110001110110010110000010110011111111110101011111111110111110011111111010111001111111100010011100010000000000000000000000000000000011111111111111111111111111111111 *!
11!
b00000000000000000000000010011000 M!
#11
01!
#12
b000000000000000000000000100110001010101101111100010111000001001100000000000000000000000010011000 /
b10010110011111000101110000010011100111101111110001110110010110000010110011111111110101011111111110111110011111111010111001111111100010011100010000000000000000000000001001100011111111111111111111111111111111 *!
11!
b0000000010011000 J!
#13
01!
#14
11!
#15
01!
#16
11!
#17
01!
#18
11!
b00000011 4!
b00000001 5!
b00000000 6!
b00000000 7!
b00000011 8!
b00000001 9!
b00000000 :!
b00000000 ;!
b00001 <!
b00000000000000000000000000000000 H!
b00 I!
#19
b000000000000000000000001000000110000000000000000000000010000001100001100100000101110111010001111111010110001010101110011110011010000001110010111100110100100000011000110001110010010100011111110001100100111100001111011000111101001000001110100100101111110110000011001110100110100101100010001101010101000101000001100111000000001000011100100000000000000000000000000000000000000000 #
b000000000000000000000000100110001001111001111100011101100101100000000000000000000000000010011000 /
b00000000000000000000000100000011000000000000000000000001000000110000110011111111110011110111111110111110011111111011101101111111101011000100010000000000000000000000001001100011111111111111111111111111111111 2
b000100110101100010 9
b010111000111011010 :
b011111001111110010 ;
b100101101001111010 <
b0000011010001000 =
b0010101001101000 >
b1111111000010000 ?
b0010100010010100 @
b00000000000000000000000100000011000000000000000000000001000000110000110011111111110011110111111110111110011111111011101101111111101011000100010000000000000000000000001001100011111111111111111111111111111111 A
b10011110111111000111011001011000 I
b10011110111111000111011001011000 K
b1111111110011110111111110111110011111111011101101111111101011000 L
b1111111110011110111111111111110011111111011101101111111101011000 P
b1111111100110100000000000111100000000000110100100000000001101011 R
b1111111111111000000000001000000011111111111001101111111110111011 T
b0010100010010100111111100001000000101010011010000000011010001000 V
b1111111110011110111111110111110011111111011101101111111101011000 X
b1111111110010110111111111111110011111111010111001111111100010011 Z
b0000000000000000110000000001111100000000000000000000000000000000 ^
b0000011010001000 g
b1111100101111000 h
b01011000 j
0l
b000 n
b0010101001101000 o
b1101010110011000 p
b01110110 r
0t
b000 v
b0000000111110000 w
b1111111000010000 x
b00000100 z
b0010100010010100 !!
b1101011101101100 "!
b01100010 $!
01!
b10011110011111000111011001011000 L!
#20
b000000000000000000000000100110000000000000000000000000100000011000000000000000000000000011001100 /
b00000000000000000000000100000011000000000000000000000001000000110000110010000000000000000000000000000000000000000000000100000000000000110100010000000000000000000000001100110000000000000000000000000000000000 2
b000000110000001110 9
b000000010000000110 :
b000000000000000010 ;
b000000000000000010 <
b0000000000001001 =
b0000000000000001 >
b0000000000000000 ?
b0000000000000000 @
b00000000000000000000000100000011000000000000000000000001000000110000110010000000000000000000000000000000000000000000000100000000000000110100010000000000000000000000001100110000000000000000000000000000000000 A
b00000000000000000000000100000011 H
b00000000000000000000000100000011 I
b00000000000000000000000100000011 J
b00000000000000000000000100000011 K
b0000000000000000000000000000000000000000000000100000000000000110 L
b0000000000000000000000000000000000000000000000010000000000000011 N
b0000000000000000000000000000000000000000000000010000000000000011 P
b0000000000000000000000000000000000000000000000100000000000000110 R
b0000000000000000000000000000000000000000000000000000000000000000 T
b0000000000000000000000000000000000000000000000010000000000001001 V
b0000000000000000000000000000000000000000000000010000000000000011 X
b0000000000000000000000000000000000000000000000010000000000000011 Z
b0000000000000000000000000000000000000000000000010000000000000110 ^
b0001 `
b00000000000000101111111001001010 a
b00000000000000001111111110011110 b
b00000000000000001111111101011000 c
b00000000000000000000000011001100 d
0e
b00000000000000000000000011001100 f
b0000000000001001 g
b1111111111110111 h
b00000011 i
b00000011 j
b0000000000000001 o
b1111111111111111 p
b00000001 q
b00000001 r
b0000000000000000 w
b0000000000000000 x
b00000000 y
b00000000 z
0|
b000 ~
b0000000000000000 !!
b0000000000000000 "!
b00000000 #!
b00000000 $!
0%!
0&!
b00000000000000000000000100000011000000000000000000000001000000110000110011111111110011110111111110111110011111111011101101111111101011000100010000000000000000000000001001100011111111111111111111111111111111 *!
11!
b00000000000000000000001000000110 L!
b00000000000000000000000011001100 M!
#21
01!
#22
b000000000000000000000000110011000000000000000000000000100000011000000000000000000000000000000100 /
b00000000000000000000000100000011000000000000000000000001000000110000110010000000000000000000000000000000000000000000000100000000000000110100010000000000000000000000000000010000000000000000000000000000000000 2
b00000000000000000000000100000011000000000000000000000001000000110000110010000000000000000000000000000000000000000000000100000000000000110100010000000000000000000000000000010000000000000000000000000000000000 A
b00000000000000000000000000001000 a
b00000000000000000000000000000110 b
b00000000000000000000000000000000 c
b00000000000000000000000000000100 d
b00000000000000000000000000000100 f
b00000000000000000000000100000011000000000000000000000001000000110000110010000000000000000000000000000000000000000000000100000000000000110100010000000000000000000000001100110000000000000000000000000000000000 *!
11!
b0000000011001100 J!
b00000000000000000000000000000100 M!
#23
01!
#24
b000000000000000000000000000001000000000000000000000000100000011000000000000000000000000000000100 /
b00000000000000000000000100000011000000000000000000000001000000110000110010000000000000000000000000000000000000000000000100000000000000110100010000000000000000000000000000010000000000000000000000000000000000 *!
11!
b0000000000000100 J!
